Name;Site;Rest
Australian Bureau of Statistics;http://api.data.abs.gov.au;/
National Statistical Institute of Cambodia;http://nsiws-stable-camstat-live.officialstatistics.org;/rest/
Federal Competitiveness and Statistics Centre;http://stableuaestat.fcsc.gov.ae;/rest/
Pacific Community;http://stats-nsi-stable.pacificdata.org;/rest/
UNESCAP;http://api-dataexplorer.unescap.org;/rest/
DEMO;http://nsi-demo-oecd-staging.siscc.org;/rest/
